%!PS-Adobe-3.0 EPSF-3.0
%%Creator: cairo 1.18.0 (https://cairographics.org)
%%CreationDate: Sat Aug 10 11:29:26 2024
%%Pages: 1
%%DocumentData: Clean7Bit
%%LanguageLevel: 2
%%BoundingBox: 1 1 171 149
%%EndComments
%%BeginProlog
50 dict begin
/q { gsave } bind def
/Q { grestore } bind def
/cm { 6 array astore concat } bind def
/w { setlinewidth } bind def
/J { setlinecap } bind def
/j { setlinejoin } bind def
/M { setmiterlimit } bind def
/d { setdash } bind def
/m { moveto } bind def
/l { lineto } bind def
/c { curveto } bind def
/h { closepath } bind def
/re { exch dup neg 3 1 roll 5 3 roll moveto 0 rlineto
      0 exch rlineto 0 rlineto closepath } bind def
/S { stroke } bind def
/f { fill } bind def
/f* { eofill } bind def
/n { newpath } bind def
/W { clip } bind def
/W* { eoclip } bind def
/BT { } bind def
/ET { } bind def
/BDC { mark 3 1 roll /BDC pdfmark } bind def
/EMC { mark /EMC pdfmark } bind def
/cairo_store_point { /cairo_point_y exch def /cairo_point_x exch def } def
/Tj { show currentpoint cairo_store_point } bind def
/TJ {
  {
    dup
    type /stringtype eq
    { show } { -0.001 mul 0 cairo_font_matrix dtransform rmoveto } ifelse
  } forall
  currentpoint cairo_store_point
} bind def
/cairo_selectfont { cairo_font_matrix aload pop pop pop 0 0 6 array astore
    cairo_font exch selectfont cairo_point_x cairo_point_y moveto } bind def
/Tf { pop /cairo_font exch def /cairo_font_matrix where
      { pop cairo_selectfont } if } bind def
/Td { matrix translate cairo_font_matrix matrix concatmatrix dup
      /cairo_font_matrix exch def dup 4 get exch 5 get cairo_store_point
      /cairo_font where { pop cairo_selectfont } if } bind def
/Tm { 2 copy 8 2 roll 6 array astore /cairo_font_matrix exch def
      cairo_store_point /cairo_font where { pop cairo_selectfont } if } bind def
/g { setgray } bind def
/rg { setrgbcolor } bind def
/d1 { setcachedevice } bind def
/cairo_data_source {
  CairoDataIndex CairoData length lt
    { CairoData CairoDataIndex get /CairoDataIndex CairoDataIndex 1 add def }
    { () } ifelse
} def
/cairo_flush_ascii85_file { cairo_ascii85_file status { cairo_ascii85_file flushfile } if } def
/cairo_image { image cairo_flush_ascii85_file } def
/cairo_imagemask { imagemask cairo_flush_ascii85_file } def
%%EndProlog
%%BeginSetup
%%EndSetup
%%Page: 1 1
%%BeginPageSetup
%%PageBoundingBox: 1 1 171 149
%%EndPageSetup
q 1 1 170 148 rectclip
1 0 0 -1 0 150 cm q
0 g
0.4 w
0 J
1 j
[] 0.0 d
10 M 86 3 m 86 147 l S
134 99 m 134 72.492 112.508 51 86 51 c 59.492 51 38 72.492 38 99 c 38 125.508
 59.492 147 86 147 c 112.508 147 134 125.508 134 99 c h
134 99 m S
86 3 m 169.137 147 l S
86 3 m 2.863 147 l S
2.863 147 m 169.137 147 l S
2.863 147 m 127.57 75 l h
2.863 147 m S
169.137 147 m 44.43 75 l S
46.23 75 m 46.23 72.602 42.629 72.602 42.629 75 c 42.629 77.398 46.23 77.398
 46.23 75 c h
46.23 75 m f*
129.371 75 m 129.371 72.602 125.77 72.602 125.77 75 c 125.77 77.398 129.371
 77.398 129.371 75 c h
129.371 75 m f*
87.801 147 m 87.801 144.602 84.199 144.602 84.199 147 c 84.199 149.398 
87.801 149.398 87.801 147 c h
87.801 147 m f*
87.801 99 m 87.801 96.602 84.199 96.602 84.199 99 c 84.199 101.398 87.801
 101.398 87.801 99 c h
87.801 99 m f*
4.66 147 m 4.66 144.602 1.062 144.602 1.062 147 c 1.062 149.398 4.66 149.398
 4.66 147 c h
4.66 147 m f*
170.938 147 m 170.938 144.602 167.34 144.602 167.34 147 c 167.34 149.398
 170.938 149.398 170.938 147 c h
170.938 147 m f*
87.801 3 m 87.801 0.602 84.199 0.602 84.199 3 c 84.199 5.398 87.801 5.398
 87.801 3 c h
87.801 3 m f*
Q Q
showpage
%%Trailer
end
%%EOF
